<define-tag pagetitle>DLA-0013-1 tiff</define-tag>
<define-tag report_date>2014-7-1</define-tag>
<define-tag secrefs>CVE-2013-4243 Bug##742917</define-tag>
<define-tag packages>tiff</define-tag>
<define-tag isvulnerable>yes</define-tag>
<define-tag fixed>yes</define-tag>
<define-tag fixed-section>no</define-tag>

#use wml::debian::security

