<define-tag pagetitle>DLA-1087-2 icedove</define-tag>
<define-tag report_date>2017-9-7</define-tag>
<define-tag packages>icedove</define-tag>
<define-tag isvulnerable>yes</define-tag>
<define-tag fixed>yes</define-tag>
<define-tag fixed-section>no</define-tag>

#use wml::debian::security

