<define-tag pagetitle>DLA-1386-1 ming</define-tag>
<define-tag report_date>2018-5-26</define-tag>
<define-tag secrefs>CVE-2018-7866 CVE-2018-7873 CVE-2018-7876 CVE-2018-9009 CVE-2018-9132</define-tag>
<define-tag packages>ming</define-tag>
<define-tag isvulnerable>yes</define-tag>
<define-tag fixed>yes</define-tag>
<define-tag fixed-section>no</define-tag>

#use wml::debian::security

