<define-tag pagetitle>DLA-1250-1 mysql-5.5</define-tag>
<define-tag report_date>2018-1-19</define-tag>
<define-tag secrefs>CVE-2018-2562 CVE-2018-2622 CVE-2018-2640 CVE-2018-2665 CVE-2018-2668</define-tag>
<define-tag packages>mysql-5.5</define-tag>
<define-tag isvulnerable>yes</define-tag>
<define-tag fixed>yes</define-tag>
<define-tag fixed-section>no</define-tag>

#use wml::debian::security

