<define-tag pagetitle>DSA-4413-1 ntfs-3g</define-tag>
<define-tag report_date>2019-3-21</define-tag>
<define-tag secrefs>CVE-2019-9755</define-tag>
<define-tag packages>ntfs-3g</define-tag>
<define-tag isvulnerable>yes</define-tag>
<define-tag fixed>yes</define-tag>
<define-tag fixed-section>no</define-tag>

#use wml::debian::security



</dl>
