<define-tag pagetitle>DLA-208-1 tzdata</define-tag>
<define-tag report_date>2015-4-28</define-tag>
<define-tag packages>tzdata</define-tag>
<define-tag isvulnerable>yes</define-tag>
<define-tag fixed>yes</define-tag>
<define-tag fixed-section>no</define-tag>

#use wml::debian::security

