<define-tag pagetitle>DLA-1752-1 poppler</define-tag>
<define-tag report_date>2019-04-08</define-tag>
<define-tag secrefs>CVE-2019-9631</define-tag>
<define-tag packages>poppler</define-tag>
<define-tag isvulnerable>yes</define-tag>
<define-tag fixed>yes</define-tag>
<define-tag fixed-section>no</define-tag>

#use wml::debian::security

