<define-tag pagetitle>DLA-1988-1 ampache</define-tag>
<define-tag report_date>2019-11-11</define-tag>
<define-tag secrefs>CVE-2019-12385 CVE-2019-12386</define-tag>
<define-tag packages>ampache</define-tag>
<define-tag isvulnerable>yes</define-tag>
<define-tag fixed>yes</define-tag>
<define-tag fixed-section>no</define-tag>

#use wml::debian::security

