<define-tag pagetitle>DLA-669-1 dwarfutils</define-tag>
<define-tag report_date>2016-10-19</define-tag>
<define-tag secrefs>CVE-2015-8538 CVE-2015-8750 CVE-2016-2050 CVE-2016-2091 CVE-2016-5034 CVE-2016-5036 CVE-2016-5038 CVE-2016-5039 CVE-2016-5042</define-tag>
<define-tag packages>dwarfutils</define-tag>
<define-tag isvulnerable>yes</define-tag>
<define-tag fixed>yes</define-tag>
<define-tag fixed-section>no</define-tag>

#use wml::debian::security

