<define-tag pagetitle>DLA-731-2 imagemagick</define-tag>
<define-tag report_date>2016-12-11</define-tag>
<define-tag secrefs>Bug#847058</define-tag>
<define-tag packages>imagemagick</define-tag>
<define-tag isvulnerable>yes</define-tag>
<define-tag fixed>yes</define-tag>
<define-tag fixed-section>no</define-tag>

#use wml::debian::security

