<define-tag pagetitle>DLA-715-1 drupal7</define-tag>
<define-tag report_date>2016-11-21</define-tag>
<define-tag secrefs>CVE-2016-9449 CVE-2016-9451</define-tag>
<define-tag packages>drupal7</define-tag>
<define-tag isvulnerable>yes</define-tag>
<define-tag fixed>yes</define-tag>
<define-tag fixed-section>no</define-tag>

#use wml::debian::security

